…
``` r

rs_obj$results = map(rs_obj$splits,
                      holdout_results,
                      mod_form)
rs_obj
#> #  10-fold cross-validation repeated 10 times 
#> # A tibble: 100 x 4
#>    splits             id       id2    results            
#>    <named list>       <chr>    <chr>  <named list>       
#>  1 <split [1.3K/147]> Repeat01 Fold01 <tibble [147 x 35]>
#>  2 <split [1.3K/147]> Repeat01 Fold02 <tibble [147 x 35]>
#>  3 <split [1.3K/147]> Repeat01 Fold03 <tibble [147 x 35]>
#>  4 <split [1.3K/147]> Repeat01 Fold04 <tibble [147 x 35]>
#>  5 <split [1.3K/147]> Repeat01 Fold05 <tibble [147 x 35]>
#>  6 <split [1.3K/147]> Repeat01 Fold06 <tibble [147 x 35]>
#>  7 <split [1.3K/147]> Repeat01 Fold07 <tibble [147 x 35]>
#>  8 <split [1.3K/147]> Repeat01 Fold08 <tibble [147 x 35]>
#>  9 <split [1.3K/147]> Repeat01 Fold09 <tibble [147 x 35]>
#> 10 <split [1.3K/147]> Repeat01 Fold10 <tibble [147 x 35]>
#> # ... with 90 more rows
```
…
